/* XPM */
static char * missile_dam_xpm[] = {
"32 32 223 2",
"  	c None",
". 	c #383C32",
"+ 	c #383B32",
"@ 	c #040404",
"# 	c #0B0B0A",
"$ 	c #787E6B",
"% 	c #838C6E",
"& 	c #3A4426",
"* 	c #1A1F13",
"= 	c #34372D",
"- 	c #3D3F37",
"; 	c #141511",
"> 	c #2E2E2E",
", 	c #6B725B",
"' 	c #2C3516",
") 	c #36401D",
"! 	c #2C3419",
"~ 	c #323726",
"{ 	c #444938",
"] 	c #4B5140",
"^ 	c #040504",
"/ 	c #10110F",
"( 	c #646F4F",
"_ 	c #4B523D",
": 	c #343A26",
"< 	c #2F391A",
"[ 	c #1F2511",
"} 	c #424635",
"| 	c #464B3A",
"1 	c #454A3A",
"2 	c #5D5F56",
"3 	c #7E876B",
"4 	c #5D644D",
"5 	c #222A11",
"6 	c #303A1B",
"7 	c #232916",
"8 	c #434937",
"9 	c #484D3A",
"0 	c #2F3227",
"a 	c #565851",
"b 	c #555A49",
"c 	c #858A7C",
"d 	c #475033",
"e 	c #636A53",
"f 	c #283016",
"g 	c #2E3719",
"h 	c #2E3222",
"i 	c #454B39",
"j 	c #505642",
"k 	c #252721",
"l 	c #393A37",
"m 	c #ACB49B",
"n 	c #494D3A",
"o 	c #9CA28E",
"p 	c #3F4927",
"q 	c #434B31",
"r 	c #242B13",
"s 	c #283116",
"t 	c #2E3124",
"u 	c #474D3A",
"v 	c #3B4032",
"w 	c #989C8D",
"x 	c #889370",
"y 	c #54574A",
"z 	c #959C84",
"A 	c #525941",
"B 	c #373F25",
"C 	c #2F3819",
"D 	c #242B15",
"E 	c #484F3D",
"F 	c #21221C",
"G 	c #111111",
"H 	c #AFB5A2",
"I 	c #6D7659",
"J 	c #55584D",
"K 	c #697551",
"L 	c #373D27",
"M 	c #222714",
"N 	c #323B1B",
"O 	c #252A19",
"P 	c #10110A",
"Q 	c #2F302D",
"R 	c #A6AF92",
"S 	c #575D46",
"T 	c #999D90",
"U 	c #505B35",
"V 	c #3F492B",
"W 	c #191F0D",
"X 	c #343D20",
"Y 	c #2B301F",
"Z 	c #6A6C67",
"` 	c #B1BC9B",
" .	c #373B2C",
"..	c #A5AB96",
"+.	c #3D4924",
"@.	c #4F5838",
"#.	c #778062",
"$.	c #4A5A46",
"%.	c #213026",
"&.	c #44473E",
"*.	c #676E59",
"=.	c #393B34",
"-.	c #798066",
";.	c #999E82",
">.	c #8A7053",
",.	c #CE2A19",
"'.	c #DE1B09",
").	c #400C02",
"!.	c #6B6E65",
"~.	c #B39F87",
"{.	c #EC1408",
"].	c #F70B07",
"^.	c #AA3E2A",
"/.	c #6C3B26",
"(.	c #040603",
"_.	c #000000",
":.	c #916651",
"<.	c #F02715",
"[.	c #998B6D",
"}.	c #758466",
"|.	c #525B46",
"1.	c #313429",
"2.	c #251C12",
"3.	c #AAA187",
"4.	c #869371",
"5.	c #7E8765",
"6.	c #6D7559",
"7.	c #515742",
"8.	c #2A2E25",
"9.	c #585954",
"0.	c #BFC6B0",
"a.	c #848E6A",
"b.	c #798262",
"c.	c #5D654B",
"d.	c #494F3C",
"e.	c #0C0D0A",
"f.	c #62645E",
"g.	c #9FA98A",
"h.	c #788161",
"i.	c #757B62",
"j.	c #585F47",
"k.	c #414537",
"l.	c #A7AA9D",
"m.	c #73795D",
"n.	c #807859",
"o.	c #6E785B",
"p.	c #505742",
"q.	c #353A2E",
"r.	c #1E1F18",
"s.	c #A38D78",
"t.	c #E82A0D",
"u.	c #6E7959",
"v.	c #60674C",
"w.	c #454B37",
"x.	c #131510",
"y.	c #352319",
"z.	c #B95E44",
"A.	c #708062",
"B.	c #6C745A",
"C.	c #5E654C",
"D.	c #4F5442",
"E.	c #090907",
"F.	c #161A0C",
"G.	c #676C62",
"H.	c #80876C",
"I.	c #7A8464",
"J.	c #404536",
"K.	c #2C3519",
"L.	c #1D2311",
"M.	c #898D7F",
"N.	c #8A9474",
"O.	c #727B5D",
"P.	c #646C50",
"Q.	c #484F3C",
"R.	c #22291D",
"S.	c #1E2711",
"T.	c #1D1E1C",
"U.	c #A6AB99",
"V.	c #7C8367",
"W.	c #707B5D",
"X.	c #686648",
"Y.	c #914225",
"Z.	c #3C1207",
"`.	c #040403",
" +	c #737C5C",
".+	c #4B4F41",
"++	c #ADB49C",
"@+	c #915A3C",
"#+	c #FC0E04",
"$+	c #F20907",
"%+	c #CB140C",
"&+	c #1F1209",
"*+	c #272A1F",
"=+	c #737C5B",
"-+	c #5F584C",
";+	c #EE1913",
">+	c #D02E1A",
",+	c #5D4E27",
"'+	c #454422",
")+	c #313924",
"!+	c #1C0A07",
"~+	c #C7241B",
"{+	c #58683F",
"]+	c #445226",
"^+	c #434E2C",
"/+	c #181B13",
"(+	c #110F0C",
"_+	c #959E84",
":+	c #465428",
"<+	c #455327",
"[+	c #424F26",
"}+	c #323924",
"|+	c #363833",
"1+	c #758160",
"2+	c #49572B",
"3+	c #465427",
"4+	c #3F482B",
"5+	c #242524",
"6+	c #7C856D",
"7+	c #96A081",
"8+	c #54613C",
"9+	c #333929",
"0+	c #1F231A",
"                                                                ",
"            . + @                                               ",
"        # $ % & * = - ;                                         ",
"        > , ' ) ! ~ { ] ^                                       ",
"        / ( _ : < [ } | 1                                       ",
"          2 3 4 5 6 7 8 9 0                                     ",
"        a b c d e f g h i j k                                   ",
"        l m n o p q r s t u v                                   ",
"          w x y z A B C D E F                                   ",
"          G H I J K L M N O P                                   ",
"            Q R S T U V W X Y                                   ",
"              Z `  ...+.@.#.$.%.                                ",
"                &.*.=.-.;.>.,.'.).                              ",
"                      !.~.{.].^./.(.                            ",
"                      _.:.<.[.}.|.1.                            ",
"                        2.3.4.5.6.7.8.                          ",
"                          9.0.a.b.c.d.e.                        ",
"                            f.g.h.i.j.k._.                      ",
"                              l.m.n.o.p.q.                      ",
"                              r.s.t.u.v.w.x.  _.                ",
"                                y.z.A.B.C.D.E.F.                ",
"                                  G.H.I.I p.J.K.L.              ",
"                                    M.N.O.P.Q.R.S.              ",
"                                    T.U.V.W.X.Y.Z.              ",
"                                  `. +.+++@+#+$+%+&+            ",
"                                    *+=+-+;+>+,+'+)+            ",
"                                      e.!+~+{+]+]+^+/+          ",
"                                          (+_+:+<+[+}+          ",
"                                            |+1+2+3+4+          ",
"                                              5+6+7+8+          ",
"                                                _.9+0+          ",
"                                                                "};
